<?xml version="1.0" encoding="UTF-8" standalone="no"?>
<svg
   xmlns:dc="http://purl.org/dc/elements/1.1/"
   xmlns:cc="http://creativecommons.org/ns#"
   xmlns:rdf="http://www.w3.org/1999/02/22-rdf-syntax-ns#"
   xmlns:svg="http://www.w3.org/2000/svg"
   xmlns="http://www.w3.org/2000/svg"
   viewBox="0 0 275.87695 105.07986"
   version="1.1"
   id="svg4173"
   height="105.07986"
   width="275.87695">
  <defs
     id="defs4175" />
  <metadata
     id="metadata4178">
    <rdf:RDF>
      <cc:Work
         rdf:about="">
        <dc:format>image/svg+xml</dc:format>
        <dc:type
           rdf:resource="http://purl.org/dc/dcmitype/StillImage" />
        <dc:title></dc:title>
      </cc:Work>
    </rdf:RDF>
  </metadata>
  <g
     transform="translate(-297.20422,-202.6794)"
     id="layer1">
    <path
       id="path3876"
       d="m 298.88293,209.62479 c -1.23247,-0.0272 -1.67871,1.76371 -1.67871,1.76371 l 0,40.0978 0,2.37995 c 0.0331,7.97366 2.22525,14.47346 6.60859,19.50704 2.53379,2.91968 5.77392,5.24182 9.68977,6.96983 3.91586,1.72716 7.92947,2.59244 12.04847,2.59244 7.52742,0 13.95752,-2.2431 19.3158,-6.69359 -3.31238,-3.64556 -4.95114,-8.28221 -4.95114,-13.91842 l 0,-21.56824 0,-5.56737 -0.0212,-1.57247 0,-2.27369 c -6.74799,-3.65152 -14.9775,-4.09266 -22.20573,-1.40247 l -0.0212,0 0,-18.61456 c 0,-1.57161 -1.8487,-1.69996 -1.8487,-1.69996 0,0 -15.70933,0.0196 -16.93585,0 z m 41.01153,21.71699 c 0.39354,0.21674 0.80408,0.44284 1.18997,0.67998 1.90396,1.17212 3.75607,2.62049 5.35488,4.1649 5.53507,5.35233 8.30855,11.78243 8.30855,19.3158 0,7.71612 -2.82788,14.22271 -8.4573,19.50704 -0.46069,0.43349 -0.92138,0.83213 -1.40246,1.23247 3.30642,3.64471 7.51382,5.48237 12.6222,5.48237 3.45517,0 6.97833,-1.02083 10.58225,-3.05993 -0.81258,2.96048 -1.92011,6.21761 -4.1224,8.52105 -2.93329,3.06248 -6.34255,1.96856 -10.15726,2.88993 -3.18403,0.76499 -3.93796,4.50915 -4.07991,7.09734 -0.20314,3.61751 1.72121,6.96813 4.84489,8.94604 6.49639,4.1122 16.20742,-0.3451 21.67449,-4.18616 1.86315,-1.30641 3.64131,-2.85083 5.20612,-4.48364 4.51935,-4.72929 7.05824,-10.76755 7.60733,-18.10457 -2.11391,-1.19253 -4.09266,-2.65959 -5.92862,-4.44115 -5.57586,-5.38632 -8.3723,-11.98642 -8.3723,-19.80453 0,-7.43138 2.81259,-13.79773 8.43605,-19.08205 1.86316,-1.74076 3.84276,-3.18403 5.94986,-4.35615 0,-0.61624 0,-1.07098 0,-1.27497 0,-1.61836 -1.8487,-1.76371 -1.8487,-1.76371 0,0 -15.51299,-0.0425 -16.91461,-0.0425 -1.40246,0 -1.8487,1.76371 -1.8487,1.76371 l 0,4.99363 0,3.16618 0,0.40374 c -0.0272,3.47557 -0.007,12.26351 0,16.19212 0.007,1.20527 0,1.95495 0,1.95495 0,3.44837 -1.29452,5.16363 -3.90991,5.16363 -2.72334,0 -4.0799,-1.56566 -4.0799,-4.69614 l 0,-2.03995 -0.085,-21.95073 c 0,-1.58607 -0.0212,-2.75139 -0.0212,-3.12368 0,-1.61241 -1.82745,-1.76371 -1.82745,-1.76371 0,0 -15.47729,-0.0425 -16.87211,-0.0425 -1.40246,0 -1.8487,1.76371 -1.8487,1.76371 l 0,0.97748 z m 49.25634,0.31874 0,2.86868 0.0425,0 -0.0212,3.86741 c 0.007,0.18275 0,0.36124 0,0.50999 l 0,16.51086 0,20.80326 c 0,1.07013 -0.0314,2.1003 -0.10625,3.12368 4.28896,2.41139 9.1432,3.63366 14.55587,3.63366 7.65577,0 14.32217,-3.47557 19.29455,-8.71229 0.50149,-0.53549 1.00977,-1.11943 1.40247,-1.74246 1.00977,-1.56567 1.39566,-3.31662 -0.14875,-4.90864 -1.74161,-1.80195 -3.50107,-3.59456 -5.24863,-5.39737 -1.03697,-1.06332 -2.1615,-2.53124 -3.42117,-3.35742 -1.99235,-1.31407 -3.37612,0.48959 -4.86613,1.59371 -1.80196,1.32767 -4.17425,3.03868 -6.5661,3.03868 -2.39099,0 -4.39354,-0.76498 -5.99236,-2.3162 -1.59881,-1.55121 -2.40119,-3.46876 -2.40119,-5.75861 0,-2.2567 0.74203,-4.12665 2.25245,-5.60987 1.50446,-1.47726 3.44327,-2.20995 5.80111,-2.20995 2.22185,0 4.51084,0.64769 6.3536,1.65747 2.60859,1.42881 4.08075,-1.46622 5.33362,-3.01743 0.94178,-1.16533 1.87676,-2.3485 2.80494,-3.52742 1.19252,-1.51127 2.36209,-3.03783 3.52742,-4.56864 3.31917,-3.51637 -3.85976,-6.97409 -6.50235,-8.01106 -3.76031,-1.46962 -7.74842,-2.03996 -11.79347,-2.03996 -5.27073,0 -10.03912,1.20528 -14.30092,3.56992 z"
       style="fill:#e11f2a;fill-opacity:1;fill-rule:nonzero;stroke:none" />
    <g
       id="text4144"
       style="font-style:normal;font-variant:normal;font-weight:bold;font-stretch:normal;font-size:101.7375412px;line-height:125%;font-family:Roboto;-inkscape-font-specification:Sans Bold;letter-spacing:0px;word-spacing:0px;fill:#14314a;fill-opacity:1;stroke:none;stroke-width:1px;stroke-linecap:butt;stroke-linejoin:miter;stroke-opacity:1"
       transform="translate(444.77687,-8.4644411)">
      <path
         id="path4149"
         transform="translate(-147.57264,211.14384)"
         d="m 132.20703,0 0,76.302734 11.39453,0 0,-2.847656 c 1.28868,1.220853 2.57656,2.16941 3.86524,2.847656 1.28867,0.678254 3.22147,1.017578 5.79882,1.017578 3.86603,0 7.18988,-0.712392 9.97071,-2.136718 2.84865,-1.424327 5.18825,-3.323393 7.01953,-5.697266 0.21319,-0.284256 0.41882,-0.573739 0.61914,-0.867187 -1.57976,-2.176097 -2.81694,-4.667307 -3.71289,-7.47461 -1.01738,-3.18778 -1.52734,-6.579101 -1.52734,-10.173828 0,-3.5269 0.50996,-6.884493 1.52734,-10.072265 0.87033,-2.785075 2.06447,-5.24497 3.58008,-7.384766 -0.25467,-0.361563 -0.51651,-0.715454 -0.79102,-1.058594 -1.83127,-2.4417 -4.17088,-4.340766 -7.01953,-5.697266 -2.78083,-1.424326 -6.0372,-2.136718 -9.76758,-2.136718 -2.37387,0 -4.13603,0.303636 -5.28906,0.914062 -1.15303,0.5426 -2.34165,1.35816 -3.5625,2.44336 L 144.3125,0 132.20703,0 Z m 38.54688,33.53125 c 0.36044,0.512768 0.7006,1.044195 1.02148,1.59375 -0.32063,-0.549835 -0.661,-1.080919 -1.02148,-1.59375 z m -18.19922,1.466797 c 3.5269,0 6.17209,1.492262 7.93554,4.476562 1.76345,2.91648 2.64454,6.748348 2.64454,11.496094 0,4.747753 -0.88109,8.613356 -2.64454,11.597656 -1.76345,2.91648 -4.40864,4.375 -7.93554,4.375 -1.83128,0 -3.32354,-0.37306 -4.47657,-1.11914 -1.0852,-0.8139 -1.96823,-1.933102 -2.64648,-3.357422 -0.61042,-1.424327 -1.05096,-3.119011 -1.32226,-5.085938 -0.20348,-1.966926 -0.30469,-4.104103 -0.30469,-6.410156 0,-2.306046 0.10121,-4.44323 0.30469,-6.410156 0.2713,-1.966927 0.71184,-3.661611 1.32226,-5.085938 0.67825,-1.424326 1.56128,-2.509786 2.64648,-3.255859 1.15303,-0.8139 2.64529,-1.220703 4.47657,-1.220703 z m 19.26758,0.205078 c 0.30347,0.524508 0.58405,1.07098 0.85156,1.628906 -0.26721,-0.558412 -0.54827,-1.104001 -0.85156,-1.628906 z m 0.97265,1.880859 c 0.25867,0.555643 0.4992,1.12652 0.72266,1.714844 -0.22301,-0.588061 -0.46457,-1.15935 -0.72266,-1.714844 z m 0.80078,1.927735 c 0.22687,0.612831 0.43992,1.23876 0.62891,1.886719 -0.18903,-0.648107 -0.40224,-1.273556 -0.62891,-1.886719 z m 0.73047,22.132812 c -0.17985,0.636403 -0.38399,1.255207 -0.60351,1.863281 0.21942,-0.608313 0.42362,-1.226735 0.60351,-1.863281 z m -0.68555,2.09375 c -0.21368,0.575365 -0.44774,1.135779 -0.69726,1.685547 0.24901,-0.54932 0.48397,-1.110719 0.69726,-1.685547 z m -0.83007,1.97461 c -0.26034,0.554919 -0.53663,1.098475 -0.83399,1.626953 0.29718,-0.528624 0.57388,-1.071851 0.83399,-1.626953 z m -0.91797,1.771484 c -0.31719,0.554785 -0.65152,1.097599 -1.00977,1.623047 0.3584,-0.525673 0.69263,-1.067901 1.00977,-1.623047 z"
         style="font-style:normal;font-variant:normal;font-weight:bold;font-stretch:normal;font-family:Cabin Condensed;-inkscape-font-specification:Cabin Condensed, Bold;fill:#14314a;fill-opacity:1" />
      <path
         id="path4151"
         transform="translate(-147.57264,211.14384)"
         d="m 188.11914,24.621094 c -3.59473,0 -6.78167,0.712393 -9.5625,2.136718 -2.78083,1.424327 -5.12238,3.323393 -7.02148,5.697266 -0.27448,0.343095 -0.53691,0.69708 -0.79297,1.058594 1.50717,2.139764 2.67012,4.599751 3.48242,7.384766 0.94955,3.187771 1.42383,6.579101 1.42383,10.173828 0,3.5269 -0.44054,6.884485 -1.32227,10.072265 -0.77908,2.756732 -1.93076,5.247392 -3.45117,7.47461 0.2141,0.294924 0.43349,0.583857 0.66016,0.867187 1.8991,2.373873 4.24065,4.272939 7.02148,5.697266 2.78083,1.424326 5.96777,2.136718 9.5625,2.136718 3.5269,0 6.68011,-0.712392 9.46094,-2.136718 2.84865,-1.424327 5.22395,-3.323393 7.12304,-5.697266 0.48784,-0.58877 0.94752,-1.203024 1.37696,-1.841797 3.1e-4,-4.57e-4 -3.1e-4,-0.0015 0,-0.002 -1.26286,-1.936252 -2.27826,-4.101965 -3.04297,-6.498047 -1.01738,-3.18778 -1.52734,-6.579101 -1.52734,-10.173828 0,-3.5269 0.50996,-6.884493 1.52734,-10.072265 0.76489,-2.447638 1.7797,-4.646454 3.04297,-6.595704 -0.42945,-0.642949 -0.8891,-1.258869 -1.37696,-1.847656 -1.89909,-2.373873 -4.27439,-4.272939 -7.12304,-5.697266 -2.78083,-1.424325 -5.93404,-2.136718 -9.46094,-2.136718 z m -17.38281,8.902344 c -0.36761,0.519542 -0.71533,1.057683 -1.04492,1.615234 0.32969,-0.557303 0.67732,-1.095712 1.04492,-1.615234 z m 35.35351,0.794921 c 0.28052,0.420715 0.54336,0.856892 0.79883,1.300782 -0.25567,-0.444159 -0.51815,-0.879829 -0.79883,-1.300782 z m -17.9707,0.679688 c 3.2556,0 5.73211,1.492262 7.42774,4.476562 1.76344,2.91648 2.64453,6.748348 2.64453,11.496094 0,4.747753 -0.88109,8.613356 -2.64453,11.597656 -1.69563,2.91648 -4.17214,4.375 -7.42774,4.375 -3.18778,0 -5.66233,-1.45852 -7.42578,-4.375 -1.76345,-2.9843 -2.64649,-6.849903 -2.64648,-11.597656 0,-4.747746 0.88303,-8.579614 2.64648,-11.496094 1.76345,-2.9843 4.238,-4.476562 7.42578,-4.476562 z m -18.46289,0.197265 c -0.31698,0.539611 -0.61298,1.100737 -0.89453,1.675782 0.28172,-0.574822 0.5774,-1.13633 0.89453,-1.675782 z m 37.45703,0.826172 c 0.22801,0.4145 0.44938,0.837376 0.65625,1.271485 -0.2071,-0.434488 -0.42799,-0.856638 -0.65625,-1.271485 z m -38.4414,1.03125 c -0.26641,0.55503 -0.51619,1.125275 -0.75,1.712891 0.23379,-0.587029 0.48361,-1.158473 0.75,-1.712891 z m 39.20312,0.462891 c 0.20967,0.451225 0.40653,0.914614 0.59375,1.386719 -0.18714,-0.471743 -0.38418,-0.935821 -0.59375,-1.386719 z m 0.76172,1.826172 c 0.19179,0.50897 0.37653,1.024028 0.54297,1.556641 -0.16639,-0.532428 -0.35119,-1.047834 -0.54297,-1.556641 z m 0.54297,21.802734 c -0.16702,0.523312 -0.35239,1.02994 -0.54492,1.53125 0.19247,-0.501047 0.37801,-1.008265 0.54492,-1.53125 z m -0.71094,1.955078 c -0.18696,0.463335 -0.38244,0.919182 -0.5918,1.363282 0.20932,-0.443939 0.40487,-0.900139 0.5918,-1.363282 z m -40.53125,0.179688 c 0.23352,0.574117 0.48419,1.131465 0.75,1.675781 -0.26575,-0.544325 -0.51652,-1.101638 -0.75,-1.675781 z m 39.83203,1.40625 c -0.2096,0.433579 -0.43276,0.856479 -0.66406,1.271484 0.23136,-0.415085 0.45438,-0.837815 0.66406,-1.271484 z m -38.92969,0.574219 c 0.27073,0.536459 0.55664,1.059497 0.85938,1.566406 -0.30292,-0.507218 -0.58854,-1.029607 -0.85938,-1.566406 z m 38.05664,1.066406 c -0.25765,0.443706 -0.52346,0.880797 -0.80664,1.302734 0.28351,-0.422423 0.54865,-0.858455 0.80664,-1.302734 z"
         style="font-style:normal;font-variant:normal;font-weight:bold;font-stretch:normal;font-family:Cabin Condensed;-inkscape-font-specification:Cabin Condensed, Bold;fill:#14314a;fill-opacity:1" />
      <path
         id="path4153"
         transform="translate(-147.57264,211.14384)"
         d="m 223.99414,24.621094 c -3.59473,0 -6.78167,0.712393 -9.5625,2.136718 -2.78083,1.424327 -5.12043,3.323393 -7.01953,5.697266 -0.47132,0.589143 -0.91502,1.204206 -1.33203,1.847656 1.302,1.949298 2.33457,4.147578 3.09961,6.595704 1.01737,3.18777 1.52539,6.545365 1.52539,10.072265 0,3.594727 -0.50802,6.986048 -1.52539,10.173828 -0.76505,2.397141 -1.79759,4.563286 -3.09961,6.5 0.417,0.63926 0.86072,1.252665 1.33203,1.841797 1.8991,2.373873 4.2387,4.272939 7.01953,5.697266 2.78083,1.424326 5.96777,2.136718 9.5625,2.136718 3.5269,0 6.68206,-0.712392 9.46289,-2.136718 1.3635,-0.681751 2.61394,-1.475714 3.75977,-2.375 l 0,-43.675782 c -1.14583,-0.899286 -2.39627,-1.693249 -3.75977,-2.375 -2.78083,-1.424325 -5.93599,-2.136718 -9.46289,-2.136718 z m 13.22266,4.511718 c 0.62402,0.489761 1.21678,1.011031 1.77734,1.564454 -0.55953,-0.554298 -1.1533,-1.074683 -1.77734,-1.564454 z m 1.77734,1.564454 c 0.22423,0.221375 0.4385,0.451838 0.65234,0.683593 -0.21327,-0.231777 -0.42877,-0.462118 -0.65234,-0.683593 z m -1.77734,42.111328 c 0.62404,-0.48977 1.21781,-1.010156 1.77734,-1.564453 -0.56056,0.553423 -1.15332,1.074692 -1.77734,1.564453 z m 1.77734,-1.564453 c 0.22357,-0.221476 0.43907,-0.451816 0.65234,-0.683594 -0.21384,0.231755 -0.42811,0.462219 -0.65234,0.683594 z m -15,-36.246094 c 3.2556,0 5.73211,1.492262 7.42774,4.476562 1.76344,2.91648 2.64453,6.748348 2.64453,11.496094 0,4.747753 -0.88109,8.613356 -2.64453,11.597656 -1.69563,2.91648 -4.17214,4.375 -7.42774,4.375 -3.18778,0 -5.66233,-1.45852 -7.42578,-4.375 -1.76345,-2.9843 -2.64649,-6.849903 -2.64648,-11.597656 0,-4.747746 0.88303,-8.579614 2.64648,-11.496094 1.76345,-2.9843 4.238,-4.476562 7.42578,-4.476562 z m -18.89062,0.962891 c -0.25567,0.473024 -0.50241,0.954457 -0.73243,1.453124 0.22981,-0.498058 0.47706,-0.98065 0.73243,-1.453124 z m -0.73633,1.460937 c -0.22613,0.490657 -0.4354,0.998203 -0.63672,1.513672 0.20147,-0.515748 0.4104,-1.02275 0.63672,-1.513672 z m -0.77539,1.876953 c -0.19596,0.522399 -0.38365,1.052291 -0.55469,1.59961 0.17095,-0.547044 0.35878,-1.077432 0.55469,-1.59961 z m -0.55469,21.845703 c 0.17164,0.537803 0.3599,1.059581 0.55664,1.574219 -0.19674,-0.514544 -0.38504,-1.036527 -0.55664,-1.574219 z m 0.69336,1.921875 c 0.20166,0.507485 0.41015,1.007695 0.63672,1.492188 -0.22669,-0.484588 -0.43496,-0.984602 -0.63672,-1.492188 z m 0.64062,1.5 c 0.23272,0.497203 0.48323,0.978196 0.74219,1.451172 -0.25886,-0.47273 -0.50952,-0.954239 -0.74219,-1.451172 z m 0.88282,1.705078 c 0.26065,0.463259 0.5301,0.919793 0.8164,1.359375 -0.28653,-0.439915 -0.55551,-0.895739 -0.8164,-1.359375 z"
         style="font-style:normal;font-variant:normal;font-weight:bold;font-stretch:normal;font-family:Cabin Condensed;-inkscape-font-specification:Cabin Condensed, Bold;fill:#14314a;fill-opacity:1" />
      <path
         id="path4155"
         transform="translate(-147.57264,211.14384)"
         d="m 237.2168,0 0,29.132812 c 1.24805,0.979522 2.37123,2.084641 3.36132,3.322266 1.96693,2.373873 3.45919,5.187753 4.47657,8.44336 1.01738,3.187771 1.52539,6.545365 1.52539,10.072265 0,3.594727 -0.50801,6.986048 -1.52539,10.173828 -1.01738,3.187773 -2.50964,5.967917 -4.47657,8.341797 -0.99009,1.237625 -2.11327,2.342744 -3.36132,3.322266 l 0,3.49414 12.10742,0 0,-22.585937 12.91992,22.585937 13.42969,0 -15.15821,-26.451172 15.36133,-24.417968 -13.42968,0 -13.12305,20.857422 0,-46.291016 -12.10742,0 z"
         style="font-style:normal;font-variant:normal;font-weight:bold;font-stretch:normal;font-family:Cabin Condensed;-inkscape-font-specification:Cabin Condensed, Bold;fill:#14314a;fill-opacity:1" />
    </g>
  </g>
</svg>
